211240 975008 525
553532 547782 377
431112 426247 374
738912 969540 525
89808 341663 443
947335 65405 525
428828 826449 509
775127 296046 509
44066 721072 509
931411 671644 525
89723 23047 351
752930 313036 509
30150 670596 509
23310 442399 449
239907 411114 449
1915 9508 262
923812 636184 525
616707 519230 452
431723 749021 509
551871 751433 509
921482 923881 445
361571 401040 436
840142 249545 525
56355 652071 509
463843 262816 449
943299 993279 458
214446 468662 449
939942 552574 525
671384 483201 509
58258 570704 470
964327 730434 525
496333 300047 449
989170 491600 525
28344 757602 509
857085 885851 432
453857 675662 509
139245 291455 443
333285 826330 509
196892 853146 525
833355 189778 509
437806 199504 449
673843 170743 509
158674 296831 443
949747 646919 525
999445 170500 525
803300 977051 525
143055 584316 470
775060 376497 509
976006 659951 525
882225 648014 525
9529 578228 470
372121 627234 509
520594 520682 196
304243 604893 470
16623 657008 509
357977 258330 441
440868 694682 509
982909 18848 525
386158 421020 449
997259 509077 525
455818 708887 509
642314 664462 429
37649 797281 509
866231 499320 525
135440 964019 525
966270 477414 525
62418 613493 470
258960 952916 525
666018 610452 509
806395 56104 509
421873 37665 449
120090 424022 449
44990 80838 351
130320 371331 443
890805 57782 525
618344 229508 470
598065 59664 470
131805 129152 344
683912 240275 509
439970 360240 449
311647 984442 525
476263 486641 413
917430 614082 525
871072 212685 525
391938 102662 443
732017 798700 468
243556 128043 443
614445 658042 509
199418 620492 470
670654 351559 509
400257 50920 443
556619 47868 470
875468 71576 525
113394 48436 354
417870 293115 449
2728 455480 449
224641 364391 443
227592 583014 470
710289 999122 525
582637 459479 470
529921 971074 525
672706 257849 509
271161 44100 443
432624 308563 449
853387 292081 525
123220 769665 509
456802 65412 449
722609 12198 509
315209 417760 449
721237 699344 504
555513 200538 470
532057 531069 346
849799 955468 507
82067 270456 443
119023 230908 443
139308 60996 354
101191 583994 470
826448 522869 509
570318 212164 470
83204 563880 470
229681 710652 509
270749 556487 470
170995 135473 383
929481 261919 525
952610 406345 525
437222 736495 509
457795 459250 307
6446 249565 443
476133 275628 449
595165 749845 509
25851 947528 525
503358 786329 509
793156 867405 525
709127 328342 509
454085 992409 525
941679 157743 525
462709 385903 449
480967 179621 449
199488 936705 525
836955 450086 509
796678 616219 509
963139 495511 525
680191 657257 442
546820 83563 470
332470 53957 443
380953 293351 441
505124 718024 509
33450 292324 443
995601 190020 525
895469 122526 525
683168 27865 509
641640 714827 504
950005 285832 525
399449 457856 449
417045 870442 525
351103 556032 470
809558 875551 525
890602 922081 476
902267 386298 525
163387 259919 443
257990 59836 443
274700 611137 470
348867 430827 449
764753 769171 468
64749 617778 470
647853 786654 504
674009 466503 509
128555 397048 443
807926 968437 525
721063 693998 504
802897 944903 525
162525 432513 449
201087 314824 443
417559 217543 449
499306 958021 525
77053 979107 525
254463 80349 443
192839 887179 525
952296 588146 525
116797 778582 509
987069 423124 525
453141 552020 470
838195 294683 525
825270 423374 509
188703 299760 443
475532 5836 449
844377 361731 525
893447 660418 525
453116 421428 418
990676 950354 458
975710 577100 525
591179 557765 434
947117 759048 525
673989 126092 509
523192 253649 470
540546 556042 452
870614 550637 525
409437 401782 405
768284 25081 509
233936 772836 509
58175 613269 470
712727 871638 525
925183 956150 507
84526 46718 351
703308 31349 509
703949 547813 509
241358 70007 443
100328 863555 525
692835 621791 509
430507 134470 449
694240 241286 509
446748 175172 449
772349 187158 509
486709 509228 426
272305 68974 443
697306 306321 509
333142 397792 441
567807 476087 470
468641 968918 525
597236 104570 470
928468 793614 525
698442 637954 442
758906 146856 509
50975 425952 449
353947 486068 449
749789 755021 424
658572 346309 509
728313 215085 509
779363 977138 525
60908 221851 386
50923 41587 314
404965 54789 443
641413 268534 509
267767 872673 525
227241 448437 449
49396 531454 470
730207 740033 424
747632 821770 468
652684 395102 509
725305 197737 509
828642 396029 509
267725 894204 525
500467 808978 509
120495 123315 336
871898 944308 507
485287 332225 449
474010 671690 509
2596 228664 386
840688 616784 525
695793 135747 509
375971 944341 525
408577 26057 443
471441 839552 525
929849 366808 525
514165 107201 470
642763 151179 509
816968 177062 509
767421 670790 504
966196 980364 458
143315 451244 449
905249 388949 525
509885 653654 509
640174 65697 509
875370 51484 525
721434 987539 525
653646 555493 509
392509 87420 443
977405 767384 525
582743 961602 525
444745 126800 449
351929 587791 470
690794 329565 509
77086 315020 443
15015 4697 276
171768 822495 509
610182 380045 470
492548 826822 509
346405 463847 449
266835 425322 449
756623 363827 509
161996 547431 470
509871 407578 449
929874 798523 525
328613 510602 449
935963 369492 525
947451 88718 525
876078 837404 525
979223 312905 525
516751 778550 509
988625 987772 321
165922 80021 383
650802 375099 509
696810 161011 509
392333 313360 441
2250 306222 443
836490 750275 468
411486 736873 509
251902 42545 443
760687 765116 375
969182 406495 525
